Reddit_politics
…
We will use the AFINN lexicon for this approach: The AFINN lexicon
assigns words with a score that runs between -5 and 5, with negative
scores indicating negative sentiment and positive scores indicating
positive sentiment.

#we use the get_sentiments function from the tidytext packages to get specific sentiment lexicons 
get_sentiments("afinn")

## # A tibble: 2,477 x 2
##    word       value
##    <chr>      <dbl>
##  1 abandon       -2
##  2 abandoned     -2
##  3 abandons      -2
##  4 abducted      -2
##  5 abduction     -2
##  6 abductions    -2
##  7 abhor         -3
##  8 abhorred      -3
##  9 abhorrent     -3
## 10 abhors        -3
## # ... with 2,467 more rows
…
unigrams_conservative <- unigrams %>%
  filter(political_lean == "Conservative") %>%
  #mutate(word = wordStem(word)) %>%
  count(word, sort = TRUE) %>%
  mutate(percent_conservative = n/sum(n)) %>% 
  select(-n) 

library(SnowballC)
full_join(unigrams_liberal, unigrams_conservative, by = "word") %>%
  mutate(difference = percent_liberal - percent_conservative, 
         more_used_from = ifelse(difference > 0, "Liberal", ifelse(difference < 0, "Conservative", "Equal")),
         difference = abs(difference)) %>%
  arrange(-abs(difference)) 

## # A tibble: 27,626 x 5
##    word        percent_liberal percent_conservative difference more_used_from
##    <chr>                 <dbl>                <dbl>      <dbl> <chr>         
##  1 ukraine            0.00139              0.00544     0.00405 Conservative  
##  2 capitalism         0.00181              0.00509     0.00328 Conservative  
##  3 russia             0.00117              0.00422     0.00305 Conservative  
##  4 biden              0.00296              0.00576     0.00281 Conservative  
##  5 trump              0.00413              0.00674     0.00261 Conservative  
##  6 government         0.00195              0.00432     0.00237 Conservative  
##  7 putin              0.000593             0.00292     0.00233 Conservative  
##  8 libertarian        0.000244             0.00234     0.00210 Conservative  
##  9 women              0.00236              0.000385    0.00197 Liberal       
## 10 people             0.00514              0.00705     0.00191 Conservative  
## # ... with 27,616 more rows
…
